^C:\USERS\КАТЕНЬКА\SOURCE\REPOS\19HW\DEBUG\19HW.OBJ
C:\USERS\Катенька\SOURCE\REPOS\19HW\DEBUG\19HW.EXE
C:\USERS\Катенька\SOURCE\REPOS\19HW\DEBUG\19HW.ILK
C:\USERS\КАТЕНЬКА\SOURCE\REPOS\19HW\DEBUG\19HW.PDB
